{
  "warnings": [
    {
      "file": "/Users/cavellebenjamin/Development/toolbox/Mercury/Sources/Mercury/Core/Destination.swift",
      "line": null,
      "symbol": "Destination",
      "symbol_kind": "source.lang.swift.decl.extension",
      "warning": "undocumented"
    },
    {
      "file": "/Users/cavellebenjamin/Development/toolbox/Mercury/Sources/Mercury/Core/Destination.swift",
      "line": 3,
      "symbol": "Destination",
      "symbol_kind": "source.lang.swift.decl.protocol",
      "warning": "undocumented"
    },
    {
      "file": "/Users/cavellebenjamin/Development/toolbox/Mercury/Sources/Mercury/Core/Destination.swift",
      "line": 5,
      "symbol": "Destination.identifier",
      "symbol_kind": "source.lang.swift.decl.var.instance",
      "warning": "undocumented"
    },
    {
      "file": "/Users/cavellebenjamin/Development/toolbox/Mercury/Sources/Mercury/Core/Destination.swift",
      "line": 6,
      "symbol": "Destination.level",
      "symbol_kind": "source.lang.swift.decl.var.instance",
      "warning": "undocumented"
    },
    {
      "file": "/Users/cavellebenjamin/Development/toolbox/Mercury/Sources/Mercury/Core/Destination.swift",
      "line": 7,
      "symbol": "Destination.queue",
      "symbol_kind": "source.lang.swift.decl.var.instance",
      "warning": "undocumented"
    },
    {
      "file": "/Users/cavellebenjamin/Development/toolbox/Mercury/Sources/Mercury/Core/Destination.swift",
      "line": 8,
      "symbol": "Destination.asynchronously",
      "symbol_kind": "source.lang.swift.decl.var.instance",
      "warning": "undocumented"
    },
    {
      "file": "/Users/cavellebenjamin/Development/toolbox/Mercury/Sources/Mercury/Core/Destination.swift",
      "line": 9,
      "symbol": "Destination.shouldSend(_:)",
      "symbol_kind": "source.lang.swift.decl.function.method.instance",
      "warning": "undocumented"
    },
    {
      "file": "/Users/cavellebenjamin/Development/toolbox/Mercury/Sources/Mercury/Core/Destination.swift",
      "line": 10,
      "symbol": "Destination.send(_:)",
      "symbol_kind": "source.lang.swift.decl.function.method.instance",
      "warning": "undocumented"
    },
    {
      "file": "/Users/cavellebenjamin/Development/toolbox/Mercury/Sources/Mercury/Core/Destination.swift",
      "line": 11,
      "symbol": "Destination.init()",
      "symbol_kind": "source.lang.swift.decl.function.method.instance",
      "warning": "undocumented"
    },
    {
      "file": "/Users/cavellebenjamin/Development/toolbox/Mercury/Sources/Mercury/Core/Destination.swift",
      "line": 12,
      "symbol": "Destination.init(identifier:queue:asynchronously:level:)",
      "symbol_kind": "source.lang.swift.decl.function.method.instance",
      "warning": "undocumented"
    },
    {
      "file": "/Users/cavellebenjamin/Development/toolbox/Mercury/Sources/Mercury/Core/Destination.swift",
      "line": 18,
      "symbol": "Destination.shouldSend(_:)",
      "symbol_kind": "source.lang.swift.decl.function.method.instance",
      "warning": "undocumented"
    },
    {
      "file": "/Users/cavellebenjamin/Development/toolbox/Mercury/Sources/Mercury/Core/DestinationManager.swift",
      "line": null,
      "symbol": "DestinationManager",
      "symbol_kind": "source.lang.swift.decl.extension",
      "warning": "undocumented"
    },
    {
      "file": "/Users/cavellebenjamin/Development/toolbox/Mercury/Sources/Mercury/Core/DestinationManager.swift",
      "line": 19,
      "symbol": "DestinationManager.add(destination:)",
      "symbol_kind": "source.lang.swift.decl.function.method.instance",
      "warning": "undocumented"
    },
    {
      "file": "/Users/cavellebenjamin/Development/toolbox/Mercury/Sources/Mercury/Core/DestinationManager.swift",
      "line": 28,
      "symbol": "DestinationManager.remove(destination:)",
      "symbol_kind": "source.lang.swift.decl.function.method.instance",
      "warning": "undocumented"
    },
    {
      "file": "/Users/cavellebenjamin/Development/toolbox/Mercury/Sources/Mercury/Core/DestinationManager.swift",
      "line": 37,
      "symbol": "DestinationManager.send(_:message:timestamp:file:line:column:function:thread:)",
      "symbol_kind": "source.lang.swift.decl.function.method.instance",
      "warning": "undocumented"
    },
    {
      "file": "/Users/cavellebenjamin/Development/toolbox/Mercury/Sources/Mercury/Core/Mercury.swift",
      "line": 3,
      "symbol": "Mercury",
      "symbol_kind": "source.lang.swift.decl.class",
      "warning": "undocumented"
    },
    {
      "file": "/Users/cavellebenjamin/Development/toolbox/Mercury/Sources/Mercury/Core/Mercury.swift",
      "line": 7,
      "symbol": "Mercury.init()",
      "symbol_kind": "source.lang.swift.decl.function.method.instance",
      "warning": "undocumented"
    },
    {
      "file": "/Users/cavellebenjamin/Development/toolbox/Mercury/Sources/Mercury/Core/Mercury.swift",
      "line": 11,
      "symbol": "Mercury.shared",
      "symbol_kind": "source.lang.swift.decl.var.static",
      "warning": "undocumented"
    },
    {
      "file": "/Users/cavellebenjamin/Development/toolbox/Mercury/Sources/Mercury/Core/MessageLevel.swift",
      "line": null,
      "symbol": "MessageLevel",
      "symbol_kind": "source.lang.swift.decl.extension",
      "warning": "undocumented"
    },
    {
      "file": "/Users/cavellebenjamin/Development/toolbox/Mercury/Sources/Mercury/Core/MessageLevel.swift",
      "line": null,
      "symbol": "MessageLevel",
      "symbol_kind": "source.lang.swift.decl.extension",
      "warning": "undocumented"
    },
    {
      "file": "/Users/cavellebenjamin/Development/toolbox/Mercury/Sources/Mercury/Core/MessageLevel.swift",
      "line": 4,
      "symbol": "MessageLevel",
      "symbol_kind": "source.lang.swift.decl.struct",
      "warning": "undocumented"
    },
    {
      "file": "/Users/cavellebenjamin/Development/toolbox/Mercury/Sources/Mercury/Core/MessageLevel.swift",
      "line": 6,
      "symbol": "MessageLevel.rawValue",
      "symbol_kind": "source.lang.swift.decl.var.instance",
      "warning": "undocumented"
    },
    {
      "file": "/Users/cavellebenjamin/Development/toolbox/Mercury/Sources/Mercury/Core/MessageLevel.swift",
      "line": 8,
      "symbol": "MessageLevel.string",
      "symbol_kind": "source.lang.swift.decl.var.instance",
      "warning": "undocumented"
    },
    {
      "file": "/Users/cavellebenjamin/Development/toolbox/Mercury/Sources/Mercury/Core/MessageLevel.swift",
      "line": 10,
      "symbol": "MessageLevel.init(rawValue:string:)",
      "symbol_kind": "source.lang.swift.decl.function.method.instance",
      "warning": "undocumented"
    },
    {
      "file": "/Users/cavellebenjamin/Development/toolbox/Mercury/Sources/Mercury/Core/MessageLevel.swift",
      "line": 18,
      "symbol": "MessageLevel.init()",
      "symbol_kind": "source.lang.swift.decl.function.method.instance",
      "warning": "undocumented"
    },
    {
      "file": "/Users/cavellebenjamin/Development/toolbox/Mercury/Sources/Mercury/Core/MessageLevel.swift",
      "line": 36,
      "symbol": "MessageLevel.verbose",
      "symbol_kind": "source.lang.swift.decl.var.static",
      "warning": "undocumented"
    },
    {
      "file": "/Users/cavellebenjamin/Development/toolbox/Mercury/Sources/Mercury/Core/MessageLevel.swift",
      "line": 37,
      "symbol": "MessageLevel.debug",
      "symbol_kind": "source.lang.swift.decl.var.static",
      "warning": "undocumented"
    },
    {
      "file": "/Users/cavellebenjamin/Development/toolbox/Mercury/Sources/Mercury/Core/MessageLevel.swift",
      "line": 38,
      "symbol": "MessageLevel.info",
      "symbol_kind": "source.lang.swift.decl.var.static",
      "warning": "undocumented"
    },
    {
      "file": "/Users/cavellebenjamin/Development/toolbox/Mercury/Sources/Mercury/Core/MessageLevel.swift",
      "line": 39,
      "symbol": "MessageLevel.warn",
      "symbol_kind": "source.lang.swift.decl.var.static",
      "warning": "undocumented"
    },
    {
      "file": "/Users/cavellebenjamin/Development/toolbox/Mercury/Sources/Mercury/Core/MessageLevel.swift",
      "line": 40,
      "symbol": "MessageLevel.error",
      "symbol_kind": "source.lang.swift.decl.var.static",
      "warning": "undocumented"
    },
    {
      "file": "/Users/cavellebenjamin/Development/toolbox/Mercury/Sources/Mercury/Core/MessagePackage.swift",
      "line": 4,
      "symbol": "MessagePackage",
      "symbol_kind": "source.lang.swift.decl.struct",
      "warning": "undocumented"
    },
    {
      "file": "/Users/cavellebenjamin/Development/toolbox/Mercury/Sources/Mercury/Core/MessagePackage.swift",
      "line": 5,
      "symbol": "MessagePackage.app",
      "symbol_kind": "source.lang.swift.decl.var.instance",
      "warning": "undocumented"
    },
    {
      "file": "/Users/cavellebenjamin/Development/toolbox/Mercury/Sources/Mercury/Core/MessagePackage.swift",
      "line": 6,
      "symbol": "MessagePackage.level",
      "symbol_kind": "source.lang.swift.decl.var.instance",
      "warning": "undocumented"
    },
    {
      "file": "/Users/cavellebenjamin/Development/toolbox/Mercury/Sources/Mercury/Core/MessagePackage.swift",
      "line": 7,
      "symbol": "MessagePackage.message",
      "symbol_kind": "source.lang.swift.decl.var.instance",
      "warning": "undocumented"
    },
    {
      "file": "/Users/cavellebenjamin/Development/toolbox/Mercury/Sources/Mercury/Core/MessagePackage.swift",
      "line": 8,
      "symbol": "MessagePackage.timestamp",
      "symbol_kind": "source.lang.swift.decl.var.instance",
      "warning": "undocumented"
    },
    {
      "file": "/Users/cavellebenjamin/Development/toolbox/Mercury/Sources/Mercury/Core/MessagePackage.swift",
      "line": 9,
      "symbol": "MessagePackage.file",
      "symbol_kind": "source.lang.swift.decl.var.instance",
      "warning": "undocumented"
    },
    {
      "file": "/Users/cavellebenjamin/Development/toolbox/Mercury/Sources/Mercury/Core/MessagePackage.swift",
      "line": 10,
      "symbol": "MessagePackage.line",
      "symbol_kind": "source.lang.swift.decl.var.instance",
      "warning": "undocumented"
    },
    {
      "file": "/Users/cavellebenjamin/Development/toolbox/Mercury/Sources/Mercury/Core/MessagePackage.swift",
      "line": 11,
      "symbol": "MessagePackage.column",
      "symbol_kind": "source.lang.swift.decl.var.instance",
      "warning": "undocumented"
    },
    {
      "file": "/Users/cavellebenjamin/Development/toolbox/Mercury/Sources/Mercury/Core/MessagePackage.swift",
      "line": 12,
      "symbol": "MessagePackage.function",
      "symbol_kind": "source.lang.swift.decl.var.instance",
      "warning": "undocumented"
    },
    {
      "file": "/Users/cavellebenjamin/Development/toolbox/Mercury/Sources/Mercury/Core/MessagePackage.swift",
      "line": 13,
      "symbol": "MessagePackage.thread",
      "symbol_kind": "source.lang.swift.decl.var.instance",
      "warning": "undocumented"
    },
    {
      "file": "/Users/cavellebenjamin/Development/toolbox/Mercury/Sources/Mercury/Core/Messenger.swift",
      "line": null,
      "symbol": "Messenger",
      "symbol_kind": "source.lang.swift.decl.extension",
      "warning": "undocumented"
    },
    {
      "file": "/Users/cavellebenjamin/Development/toolbox/Mercury/Sources/Mercury/Core/Messenger.swift",
      "line": 3,
      "symbol": "Messenger",
      "symbol_kind": "source.lang.swift.decl.protocol",
      "warning": "undocumented"
    },
    {
      "file": "/Users/cavellebenjamin/Development/toolbox/Mercury/Sources/Mercury/Core/Messenger.swift",
      "line": 7,
      "symbol": "Messenger.shared",
      "symbol_kind": "source.lang.swift.decl.var.static",
      "warning": "undocumented"
    },
    {
      "file": "/Users/cavellebenjamin/Development/toolbox/Mercury/Sources/Mercury/Core/Messenger.swift",
      "line": 9,
      "symbol": "Messenger.init()",
      "symbol_kind": "source.lang.swift.decl.function.method.instance",
      "warning": "undocumented"
    },
    {
      "file": "/Users/cavellebenjamin/Development/toolbox/Mercury/Sources/Mercury/Core/Messenger.swift",
      "line": 12,
      "symbol": "Messenger.add(destination:)",
      "symbol_kind": "source.lang.swift.decl.function.method.instance",
      "warning": "undocumented"
    },
    {
      "file": "/Users/cavellebenjamin/Development/toolbox/Mercury/Sources/Mercury/Core/Messenger.swift",
      "line": 15,
      "symbol": "Messenger.remove(destination:)",
      "symbol_kind": "source.lang.swift.decl.function.method.instance",
      "warning": "undocumented"
    },
    {
      "file": "/Users/cavellebenjamin/Development/toolbox/Mercury/Sources/Mercury/Core/Messenger.swift",
      "line": 17,
      "symbol": "Messenger.createPackage(_:message:timestamp:file:line:column:function:thread:)",
      "symbol_kind": "source.lang.swift.decl.function.method.instance",
      "warning": "undocumented"
    },
    {
      "file": "/Users/cavellebenjamin/Development/toolbox/Mercury/Sources/Mercury/Core/Messenger.swift",
      "line": 19,
      "symbol": "Messenger.verbose(_:timestamp:file:line:column:function:thread:)",
      "symbol_kind": "source.lang.swift.decl.function.method.instance",
      "warning": "undocumented"
    },
    {
      "file": "/Users/cavellebenjamin/Development/toolbox/Mercury/Sources/Mercury/Core/Messenger.swift",
      "line": 21,
      "symbol": "Messenger.debug(_:timestamp:file:line:column:function:thread:)",
      "symbol_kind": "source.lang.swift.decl.function.method.instance",
      "warning": "undocumented"
    },
    {
      "file": "/Users/cavellebenjamin/Development/toolbox/Mercury/Sources/Mercury/Core/Messenger.swift",
      "line": 23,
      "symbol": "Messenger.info(_:timestamp:file:line:column:function:thread:)",
      "symbol_kind": "source.lang.swift.decl.function.method.instance",
      "warning": "undocumented"
    },
    {
      "file": "/Users/cavellebenjamin/Development/toolbox/Mercury/Sources/Mercury/Core/Messenger.swift",
      "line": 25,
      "symbol": "Messenger.warn(_:timestamp:file:line:column:function:thread:)",
      "symbol_kind": "source.lang.swift.decl.function.method.instance",
      "warning": "undocumented"
    },
    {
      "file": "/Users/cavellebenjamin/Development/toolbox/Mercury/Sources/Mercury/Core/Messenger.swift",
      "line": 27,
      "symbol": "Messenger.error(_:timestamp:file:line:column:function:thread:)",
      "symbol_kind": "source.lang.swift.decl.function.method.instance",
      "warning": "undocumented"
    },
    {
      "file": "/Users/cavellebenjamin/Development/toolbox/Mercury/Sources/Mercury/Core/Messenger.swift",
      "line": 29,
      "symbol": "Messenger.custom(level:_:timestamp:file:line:column:function:thread:)",
      "symbol_kind": "source.lang.swift.decl.function.method.instance",
      "warning": "undocumented"
    },
    {
      "file": "/Users/cavellebenjamin/Development/toolbox/Mercury/Sources/Mercury/Core/Messenger.swift",
      "line": 35,
      "symbol": "Messenger.verbose(_:timestamp:file:line:column:function:thread:)",
      "symbol_kind": "source.lang.swift.decl.function.method.instance",
      "warning": "undocumented"
    },
    {
      "file": "/Users/cavellebenjamin/Development/toolbox/Mercury/Sources/Mercury/Core/Messenger.swift",
      "line": 40,
      "symbol": "Messenger.debug(_:timestamp:file:line:column:function:thread:)",
      "symbol_kind": "source.lang.swift.decl.function.method.instance",
      "warning": "undocumented"
    },
    {
      "file": "/Users/cavellebenjamin/Development/toolbox/Mercury/Sources/Mercury/Core/Messenger.swift",
      "line": 45,
      "symbol": "Messenger.info(_:timestamp:file:line:column:function:thread:)",
      "symbol_kind": "source.lang.swift.decl.function.method.instance",
      "warning": "undocumented"
    },
    {
      "file": "/Users/cavellebenjamin/Development/toolbox/Mercury/Sources/Mercury/Core/Messenger.swift",
      "line": 50,
      "symbol": "Messenger.warn(_:timestamp:file:line:column:function:thread:)",
      "symbol_kind": "source.lang.swift.decl.function.method.instance",
      "warning": "undocumented"
    },
    {
      "file": "/Users/cavellebenjamin/Development/toolbox/Mercury/Sources/Mercury/Core/Messenger.swift",
      "line": 55,
      "symbol": "Messenger.error(_:timestamp:file:line:column:function:thread:)",
      "symbol_kind": "source.lang.swift.decl.function.method.instance",
      "warning": "undocumented"
    },
    {
      "file": "/Users/cavellebenjamin/Development/toolbox/Mercury/Sources/Mercury/Core/Messenger.swift",
      "line": 60,
      "symbol": "Messenger.custom(level:_:timestamp:file:line:column:function:thread:)",
      "symbol_kind": "source.lang.swift.decl.function.method.instance",
      "warning": "undocumented"
    },
    {
      "file": "/Users/cavellebenjamin/Development/toolbox/Mercury/Sources/Mercury/Core/Messenger.swift",
      "line": 65,
      "symbol": "Messenger.createPackage(_:message:timestamp:file:line:column:function:thread:)",
      "symbol_kind": "source.lang.swift.decl.function.method.instance",
      "warning": "undocumented"
    },
    {
      "file": "/Users/cavellebenjamin/Development/toolbox/Mercury/Sources/Mercury/Destinations/ConsoleDestination.swift",
      "line": 3,
      "symbol": "Console",
      "symbol_kind": "source.lang.swift.decl.class",
      "warning": "undocumented"
    },
    {
      "file": "/Users/cavellebenjamin/Development/toolbox/Mercury/Sources/Mercury/Destinations/ConsoleDestination.swift",
      "line": 5,
      "symbol": "Console.identifier",
      "symbol_kind": "source.lang.swift.decl.var.instance",
      "warning": "undocumented"
    },
    {
      "file": "/Users/cavellebenjamin/Development/toolbox/Mercury/Sources/Mercury/Destinations/ConsoleDestination.swift",
      "line": 7,
      "symbol": "Console.level",
      "symbol_kind": "source.lang.swift.decl.var.instance",
      "warning": "undocumented"
    },
    {
      "file": "/Users/cavellebenjamin/Development/toolbox/Mercury/Sources/Mercury/Destinations/ConsoleDestination.swift",
      "line": 9,
      "symbol": "Console.queue",
      "symbol_kind": "source.lang.swift.decl.var.instance",
      "warning": "undocumented"
    },
    {
      "file": "/Users/cavellebenjamin/Development/toolbox/Mercury/Sources/Mercury/Destinations/ConsoleDestination.swift",
      "line": 11,
      "symbol": "Console.asynchronously",
      "symbol_kind": "source.lang.swift.decl.var.instance",
      "warning": "undocumented"
    },
    {
      "file": "/Users/cavellebenjamin/Development/toolbox/Mercury/Sources/Mercury/Destinations/ConsoleDestination.swift",
      "line": 13,
      "symbol": "Console.init(identifier:queue:asynchronously:level:)",
      "symbol_kind": "source.lang.swift.decl.function.method.instance",
      "warning": "undocumented"
    },
    {
      "file": "/Users/cavellebenjamin/Development/toolbox/Mercury/Sources/Mercury/Destinations/ConsoleDestination.swift",
      "line": 20,
      "symbol": "Console.init()",
      "symbol_kind": "source.lang.swift.decl.function.method.instance",
      "warning": "undocumented"
    },
    {
      "file": "/Users/cavellebenjamin/Development/toolbox/Mercury/Sources/Mercury/Destinations/ConsoleDestination.swift",
      "line": 28,
      "symbol": "Console.send(_:)",
      "symbol_kind": "source.lang.swift.decl.function.method.instance",
      "warning": "undocumented"
    },
    {
      "file": "/Users/cavellebenjamin/Development/toolbox/Mercury/Sources/Mercury/Destinations/Logstash/LogstashDestination.swift",
      "line": 6,
      "symbol": "Logstash",
      "symbol_kind": "source.lang.swift.decl.class",
      "warning": "undocumented"
    },
    {
      "file": "/Users/cavellebenjamin/Development/toolbox/Mercury/Sources/Mercury/Destinations/Logstash/LogstashDestination.swift",
      "line": 10,
      "symbol": "Logstash.init()",
      "symbol_kind": "source.lang.swift.decl.function.method.instance",
      "warning": "undocumented"
    },
    {
      "file": "/Users/cavellebenjamin/Development/toolbox/Mercury/Sources/Mercury/Destinations/Logstash/LogstashDestination.swift",
      "line": 18,
      "symbol": "Logstash.init(identifier:queue:asynchronously:level:)",
      "symbol_kind": "source.lang.swift.decl.function.method.instance",
      "warning": "undocumented"
    },
    {
      "file": "/Users/cavellebenjamin/Development/toolbox/Mercury/Sources/Mercury/Destinations/Logstash/LogstashDestination.swift",
      "line": 25,
      "symbol": "Logstash.init(_:)",
      "symbol_kind": "source.lang.swift.decl.function.method.instance",
      "warning": "undocumented"
    },
    {
      "file": "/Users/cavellebenjamin/Development/toolbox/Mercury/Sources/Mercury/Destinations/Logstash/LogstashDestination.swift",
      "line": 33,
      "symbol": "Logstash.init(_:identifier:queue:asynchronously:level:)",
      "symbol_kind": "source.lang.swift.decl.function.method.instance",
      "warning": "undocumented"
    },
    {
      "file": "/Users/cavellebenjamin/Development/toolbox/Mercury/Sources/Mercury/Destinations/Logstash/LogstashDestination.swift",
      "line": 46,
      "symbol": "Logstash.identifier",
      "symbol_kind": "source.lang.swift.decl.var.instance",
      "warning": "undocumented"
    },
    {
      "file": "/Users/cavellebenjamin/Development/toolbox/Mercury/Sources/Mercury/Destinations/Logstash/LogstashDestination.swift",
      "line": 48,
      "symbol": "Logstash.level",
      "symbol_kind": "source.lang.swift.decl.var.instance",
      "warning": "undocumented"
    },
    {
      "file": "/Users/cavellebenjamin/Development/toolbox/Mercury/Sources/Mercury/Destinations/Logstash/LogstashDestination.swift",
      "line": 50,
      "symbol": "Logstash.queue",
      "symbol_kind": "source.lang.swift.decl.var.instance",
      "warning": "undocumented"
    },
    {
      "file": "/Users/cavellebenjamin/Development/toolbox/Mercury/Sources/Mercury/Destinations/Logstash/LogstashDestination.swift",
      "line": 52,
      "symbol": "Logstash.asynchronously",
      "symbol_kind": "source.lang.swift.decl.var.instance",
      "warning": "undocumented"
    },
    {
      "file": "/Users/cavellebenjamin/Development/toolbox/Mercury/Sources/Mercury/Destinations/Logstash/LogstashDestination.swift",
      "line": 54,
      "symbol": "Logstash.send(_:)",
      "symbol_kind": "source.lang.swift.decl.function.method.instance",
      "warning": "undocumented"
    },
    {
      "file": "/Users/cavellebenjamin/Development/toolbox/Mercury/Sources/Mercury/Destinations/Logstash/LogstashService.swift",
      "line": 9,
      "symbol": "LogstashService",
      "symbol_kind": "source.lang.swift.decl.class",
      "warning": "undocumented"
    },
    {
      "file": "/Users/cavellebenjamin/Development/toolbox/Mercury/Sources/Mercury/Destinations/Logstash/LogstashService.swift",
      "line": 11,
      "symbol": "LogstashService.session",
      "symbol_kind": "source.lang.swift.decl.var.instance",
      "warning": "undocumented"
    },
    {
      "file": "/Users/cavellebenjamin/Development/toolbox/Mercury/Sources/Mercury/Destinations/Logstash/LogstashService.swift",
      "line": 13,
      "symbol": "LogstashService.sessionDelegate",
      "symbol_kind": "source.lang.swift.decl.var.instance",
      "warning": "undocumented"
    },
    {
      "file": "/Users/cavellebenjamin/Development/toolbox/Mercury/Sources/Mercury/Destinations/Logstash/LogstashService.swift",
      "line": 15,
      "symbol": "LogstashService.tasks",
      "symbol_kind": "source.lang.swift.decl.var.instance",
      "warning": "undocumented"
    },
    {
      "file": "/Users/cavellebenjamin/Development/toolbox/Mercury/Sources/Mercury/Destinations/Logstash/LogstashService.swift",
      "line": 25,
      "symbol": "LogstashService.registerSessionAuthenticationChallengeHandler(for:)",
      "symbol_kind": "source.lang.swift.decl.function.method.instance",
      "warning": "undocumented"
    },
    {
      "file": "/Users/cavellebenjamin/Development/toolbox/Mercury/Sources/Mercury/Destinations/Logstash/LogstashService.swift",
      "line": 31,
      "symbol": "LogstashService.make(mock:_:for:completionHandler:)",
      "symbol_kind": "source.lang.swift.decl.function.method.instance",
      "warning": "undocumented"
    },
    {
      "file": "/Users/cavellebenjamin/Development/toolbox/Mercury/Sources/Mercury/Destinations/Logstash/LogstashService.swift",
      "line": 59,
      "symbol": "LogstashService.connect(mock:to:completionHandler:)",
      "symbol_kind": "source.lang.swift.decl.function.method.instance",
      "warning": "undocumented"
    },
    {
      "file": "/Users/cavellebenjamin/Development/toolbox/Mercury/Sources/Mercury/Destinations/Logstash/LogstashService.swift",
      "line": 94,
      "symbol": "LogstashService.connect(mock:to:completionHandler:)",
      "symbol_kind": "source.lang.swift.decl.function.method.instance",
      "warning": "undocumented"
    },
    {
      "file": "/Users/cavellebenjamin/Development/toolbox/Mercury/Sources/Mercury/Destinations/Logstash/LogstashService.swift",
      "line": 117,
      "symbol": "LogstashService.connect(mock:to:returning:completionHandler:)",
      "symbol_kind": "source.lang.swift.decl.function.method.instance",
      "warning": "undocumented"
    },
    {
      "file": "/Users/cavellebenjamin/Development/toolbox/Mercury/Sources/Mercury/Destinations/Logstash/LogstashService.swift",
      "line": 151,
      "symbol": "LogstashService.shared",
      "symbol_kind": "source.lang.swift.decl.var.static",
      "warning": "undocumented"
    }
  ],
  "source_directory": "/Users/cavellebenjamin/Development/toolbox/Mercury"
}